…
Filter the data to include data from the year 2020 only:
```R
pop_2020 <- pop_data %>% 
            filter(date == 2020)

---
## # A tibble: 217 × 9
##    iso2c iso3c country             date SP.PO…¹ unit  obs_s…² footn…³ last_upd…⁴
##    <chr> <chr> <chr>              <dbl>   <dbl> <chr> <chr>   <chr>   <date>    
##  1 AF    AFG   Afghanistan         2020  3.89e7 <NA>  <NA>    <NA>    2022-09-16
##  2 AL    ALB   Albania             2020  2.84e6 <NA>  <NA>    <NA>    2022-09-16
##  3 DZ    DZA   Algeria             2020  4.39e7 <NA>  <NA>    <NA>    2022-09-16
##  4 AS    ASM   American Samoa      2020  5.52e4 <NA>  <NA>    <NA>    2022-09-16
##  5 AD    AND   Andorra             2020  7.73e4 <NA>  <NA>    <NA>    2022-09-16
##  6 AO    AGO   Angola              2020  3.29e7 <NA>  <NA>    <NA>    2022-09-16
##  7 AG    ATG   Antigua and Barbu…  2020  9.79e4 <NA>  <NA>    <NA>    2022-09-16
##  8 AR    ARG   Argentina           2020  4.54e7 <NA>  <NA>    <NA>    2022-09-16
##  9 AM    ARM   Armenia             2020  2.96e6 <NA>  <NA>    <NA>    2022-09-16
## 10 AW    ABW   Aruba               2020  1.07e5 <NA>  <NA>    <NA>    2022-09-16
## # … with 207 more rows, and abbreviated variable names ¹​SP.POP.TOTL,
## #   ²​obs_status, ³​footnote, ⁴​last_updated
```
…
