…
  # name value as 'abundance' 
  values_to = "abudance",
  
  # delete Na from values
  values_drop_na = T)

# show result
pop_tidy
```

Result:
```R
## # A tibble: 696 × 7
##    species                    primary_th…¹ secon…² terti…³ popul…⁴ date  abuda…⁵
##    <chr>                      <chr>        <chr>   <chr>   <chr>   <chr>   <dbl>
##  1 Schistidium helveticum     Habitat des… <NA>    <NA>    1       2013…     353
##  2 Schistidium helveticum     Habitat des… <NA>    <NA>    1       2014…     419
##  3 Schistidium helveticum     Habitat des… <NA>    <NA>    1       2015…     359
##  4 Schistidium helveticum     Habitat des… <NA>    <NA>    1       2016…     363
##  5 Schistidium helveticum     Habitat des… <NA>    <NA>    1       2017…     321
##  6 Schistidium helveticum     Habitat des… <NA>    <NA>    1       2018…     280
##  7 Schistidium helveticum     Habitat des… <NA>    <NA>    1       2019…     379
##  8 Paraleucobryum longifolium Exploitation Habita… <NA>    1       2005…      24
##  9 Paraleucobryum longifolium Exploitation Habita… <NA>    1       2006…      12
## 10 Paraleucobryum longifolium Exploitation Habita… <NA>    1       2007…      18
## # … with 686 more rows, and abbreviated variable names ¹​primary_threat,
## #   ²​secondary_threat, ³​tertiary_threat, ⁴​population, ⁵​abudance
```
