…
Signif. codes:  0 ‘***’ 0.001 ‘**’ 0.01 ‘*’ 0.05 ‘.’ 0.1 ‘ ’ 1

Residual standard error: 28210 on 1376 degrees of freedom
Multiple R-squared:  0.1869,	Adjusted R-squared:  0.1857 
F-statistic: 158.2 on 2 and 1376 DF,  p-value: < 2.2e-16


wages %>% modelr::add_predictions(mod2) # View the fit value
---
# A tibble: 1,379 × 7
     earn height sex    race        ed   age   pred
    <dbl>  <dbl> <chr>  <chr>    <dbl> <dbl>  <dbl>
 1 79571.   73.9 male   white       16    49 58571.
 2 96397.   66.2 female white       16    62 42583.
 3 48711.   63.8 female white       16    33 37449.
 4 80478.   63.2 female other       16    95 36301.
 5 82089.   63.1 female white       17    43 40126.
 6 15313.   64.5 female white       15    30 34917.
 7 47104.   61.5 female white       12    53 16322.
 8 50960.   73.3 male   white       17    50 61437.
 9  3213.   72.2 male   hispanic    15    25 51009.
10 42997.   72.4 male   white       12    30 38989.
# … with 1,369 more rows
# ℹ Use `print(n = ...)` to see more rows
```
…
